{
  "images" : [
    {
      "idiom" : "universal",
      "scale" : "1x",
      "filename" : "ICON3-01.png"
    },
    {
      "idiom" : "universal",
      "scale" : "2x",
      "filename" : "ICON3@2X-01.png"
    },
    {
      "idiom" : "universal",
      "scale" : "3x",
      "filename" : "icon3@3x-01.png"
    }
  ],
  "info" : {
    "version" : 1,
    "author" : "xcode"
  }
}